<?xml version="1.0" encoding="UTF-8"?>
<session version="1.0">
<refactoring comment="Delete resource &apos;8.3&apos;" deleteContents="false" description="Delete resource &apos;8.3&apos;" element1="/8.3" flags="7" id="org.eclipse.ltk.core.refactoring.delete.resources" resources="1" stamp="1669473147839"/>
</session>