<?xml version="1.0" encoding="UTF-8"?>
<session version="1.0">
<refactoring comment="Delete resource &apos;Classwork6&apos;" deleteContents="false" description="Delete resource &apos;Classwork6&apos;" element1="/Classwork6" flags="7" id="org.eclipse.ltk.core.refactoring.delete.resources" resources="1" stamp="1668589752117"/>
</session>